{
  "name": "VIM",
  "description": "Install and Configure VIM",
  "check": "vim --version && test -f ~/.vimrc",
  "main": {
    "pacman": [
      "vim"
    ]
  },
  "post": {
    "files": [
      {
        "file": "~/.vimrc",
        "mode": "new",
        "source": "files/config/vimrc"
      }
    ]
  }
}
